{
    "antifeatures": {
        "Ads": "इस एप्लिकेशन में विज्ञापन शामिल हैं",
        "DisabledAlgorithm": "इस ऐप में एक कमजोर सुरक्षा हस्ताक्षर है",
        "KnownVuln": "इस एप्लिकेशन में एक ज्ञात सुरक्षा भेद्यता है",
        "NoSourceSince": "स्रोत कोड अब उपलब्ध नहीं है, कोई अपडेट संभव नहीं है.",
        "NonFreeAdd": "इस एप्लिकेशन गैर-नि: शुल्क add-ons को बढ़ावा देता है",
        "NonFreeAssets": "इस ऐप में गैर-मुक्त संपत्ति है",
        "NonFreeDep": "यह ऐप अन्य नॉन-फ्री ऐप पर निर्भर करता है",
        "NonFreeNet": "यह ऐप गैर-मुक्त नेटवर्क सेवाओं को बढ़ावा देता है",
        "Tracking": "यह ऐप आपकी गतिविधि पर् नज़र रखता है और रिपोर्ट करता है",
        "UpstreamNonFree": "अपस्ट्रीम स्रोत कोड पूरी तरह से मुफ्त नहीं है"
    },
    "app_categories": {
        "Connectivity": "संपर्क",
        "Development": "विकास",
        "Games": "खेल",
        "Graphics": "ग्राफिक्स",
        "Internet": "ईंटरनेट",
        "Money": "पैसे",
        "Multimedia": "बहुमाध्यम",
        "Navigation": "पथ प्रदर्शन",
        "Phone & SMS": "फ़ोन और एस-एम-एस",
        "Reading": "पठन",
        "Science & Education": "विग्यान और शिक्षा",
        "Security": "सुरक्षा",
        "Sports & Health": "खेल-कूद एवं स्वास्थ्य",
        "System": "सिस्टम",
        "Theming": "थेमिंग",
        "Time": "समय",
        "Writing": "लिख रहे हैं",
        "show_all_packages": "सभी% d पैकेज दिखाएं"
    },
    "index": {
        "download_fdroid": "F-Droid डाउनलोड करें",
        "gpg_signature": "पीजीपी हस्ताक्षर",
        "screenshot": "एफ-ड्रॉइड एंड्रॉयड ऐप स्क्रीनशॉट",
        "title": "एफ-ड्रॉइड क्या है?"
    },
    "navigation": {
        "about": "परिचय",
        "apps": "ऐप्स",
        "contribute": "सहयोग",
        "documentation": "डॉक्स",
        "edit_on_gitlab": "गिटलैब पर संपादित करें",
        "forum": "मंच",
        "issues": "मुद्दे",
        "news": "समाचार",
        "translate_on_weblate": "वेबलेट पर अनुवाद करें"
    },
    "package": {
        "added_on": "{{Package_added_date}} पर जोड़ा गया",
        "anti_features": "विरोधी विशेषताएं",
        "anti_features_warning": "इस ऐप में ऐसे फीचर्स हैं जो आपको पसंद नहीं आ सकते हैं।",
        "author": "लेखक",
        "build_metadata": "मेटाडेटा बनाएं",
        "changelog": "बदलाव लॉग",
        "donate": "दान करें",
        "download": "डाउनलोड {{file_extension}}",
        "flattr": "Flattr",
        "gpg_signature": "पीजीपी हस्ताक्षर",
        "issue_tracker": "इश्यू ट्रैकर",
        "liberapay": "लिब्रेपे",
        "license": "लाइसेंस",
        "minimum_android_version": "इस संस्करण के लिए एंड्रॉइड {{{android_version }} या नए की आवश्यकता है.",
        "new_in_version": "संस्करण {{latest_version}} में नया",
        "opencollective": "ओपन कलेक्टिव",
        "package_icon_alt": "पैकेज आइकन",
        "package_screenshot_alt": "ऐप स्क्रीनशॉट",
        "packages": "पेकज",
        "permissions": "अनुमतियां",
        "signed_by_developer": "यह मूल डेवलपर द्वारा बनाया और हस्ताक्षरित है।",
        "source_code": "सोर्स कोड",
        "suggested": "सुझावित",
        "technical_info": "तकनीकी जानकारी",
        "translation": "अनुवाद",
        "website": "वेबसाइट"
    },
    "permissions": {
        "permdesc_acceptHandovers": "एप्लिकेशन को एक कॉल जारी रखने की अनुमति देता है जिसे किसी अन्य ऐप में शुरू किया था।"
    },
    "sidebars": {
        "lang": {
            "change": "परिवर्तन"
        }
    }
}
